Crime Analysis: Kronos Incident
…
The first question is as following:

Using visual analytics, characterize the different types of content in the data set. What distinguishes meaningful event reports from typical chatter from junk or spam? Please limit your answer to 8 images and 500 words.

To answer this question, we need to first identify what are the meaningful messages. Since the purpose of visualization is to control the risky events, we decided to consider the meaningful messages as the messages that can contribute to find the risk or vicious events. Based on our observation, there are some authors are the official one. Therefore, we can use the top useful words from official messages to filter the useful messages from all messages.

# extract data from mbdata
text_mb1 <- tibble(line = 1:3872,Time = mbdata$`date(yyyyMMddHHmmss)`, 
                   author = mbdata$author, text = mbdata$message)
text_mb1<-text_mb1 %>%
  separate(text, into = c("text", "tag"), sep = "#")%>%
  select(-tag)
text_mb1

# A tibble: 3,872 x 4
    line Time                author       text                        
   <int> <dttm>              <chr>        <chr>                       
 1     1 2014-01-23 17:00:00 POK          "Follow us @POK-Kronos"     
 2     2 2014-01-23 17:00:00 maha_Homela~ "Don't miss a moment!  Foll~
 3     3 2014-01-23 17:00:00 Viktor-E     "Come join us in the Park! ~
 4     4 2014-01-23 17:00:00 KronosStar   "POK rally to start in Abil~
 5     5 2014-01-23 17:00:00 AbilaPost    "POK rally set to take plac~
 6     6 2014-01-23 17:00:00 ourcountryo~ "POK rally in the park toni~
 7     7 2014-01-23 17:00:00 ReggieWassa~ "great day for a rally! "   
 8     8 2014-01-23 17:00:00 MindOfKronos "Ugh, these POKers are anoo~
 9     9 2014-01-23 17:00:00 FriendsOfKr~ "massive rally of POK terro~
10    10 2014-01-23 17:00:00 rockinHW     "Artist ? musician? need mo~
# ... with 3,862 more rows
…
time <- ggplotly(time)
  
time

frequency <- dif_message %>% 
  group_by(author) %>% 
  count(useful, sort = TRUE) %>% 
  left_join(dif_message %>% 
              group_by(author) %>% 
              summarise(total = n())) %>%
  mutate(freq = n/total)
frequency

# A tibble: 257 x 5
# Groups:   author [154]
   author                useful         n total  freq
   <chr>                 <chr>      <int> <int> <dbl>
 1 KronosQuoth           junk         961  1265 0.760
 2 KronosQuoth           meaningful   304  1265 0.240
 3 Clevvah4Evah          junk         153   153 1    
 4 megaMan               junk          79   106 0.745
 5 POK                   meaningful    67    67 1    
 6 truccotrucco          junk          53    64 0.828
 7 AbilaPost             meaningful    52    72 0.722
 8 FriendsOfKronos       meaningful    41    63 0.651
 9 HomelandIlluminations meaningful    39    65 0.6  
10 roger_roger           junk          35    37 0.946
# ... with 247 more rows
…
scatter <- ggplot(frequency, aes(junk, meaningful,)) +
  geom_jitter(alpha = 0.1, size = 2.5, width = 0.25, height = 0.25) +
  scale_x_log10(labels = percent_format()) +
  scale_y_log10(labels = percent_format()) +
  geom_abline(color = "red")+
  ggtitle("Comparing the frequency of junk and meaningful messages")
ggplotly(scatter)

#co-occur words for meaningful messages
pairs_use <- evaluate_use1 %>% 
  ungroup()%>%
  pairwise_count(word, line, sort = TRUE)
pairs_use

# A tibble: 34,288 x 3
   item1   item2       n
   <chr>   <chr>   <dbl>
 1 dolphin dancing   125
 2 dancing dolphin   125
 3 dancing fire      117
 4 fire    dancing   117
 5 dolphin fire      105
 6 fire    dolphin   105
 7 rally   pok        90
 8 pok     rally      90
 9 fire    abila      90
10 abila   fire       90
# ... with 34,278 more rows
…
#co-occur words for junk messages
pairs_nuse <- evaluate_nuse1 %>% 
  ungroup()%>%
  pairwise_count(word, line, sort = TRUE)
pairs_nuse

# A tibble: 36,882 x 3
   item1   item2       n
   <chr>   <chr>   <dbl>
 1 failure success    42
 2 success failure    42
 3 don't   be         32
 4 be      don't      32
 5 one     no         29
 6 don't   if         29
 7 if      don't      29
 8 no      one        29
 9 be      only       28
10 only    be         28
# ... with 36,872 more rows
…
